…
::: dplyr


```r
mtcars %>% 
  dplyr::group_by(cyl, gear) %>% 
  dplyr::summarise(mean_mpg = mean(mpg))
#> # A tibble: 8 x 3
#> # Groups:   cyl [3]
#>     cyl  gear mean_mpg
#>   <dbl> <dbl>    <dbl>
#> 1     4     3     21.5
#> 2     4     4     26.9
#> 3     4     5     28.2
#> 4     6     3     19.8
#> 5     6     4     19.8
#> 6     6     5     19.7
#> # … with 2 more rows
```
…
以数据集 ToothGrowth 为例，变量 supp（大组），dose（小组） 和 time（组内个体编号） 一起决定唯一的一个数据 len，特别适合纵向数据的变形操作



## 分组 {#subsec:group-by}

分组切片，取每组第一个和最后一个值


```r
Loblolly %>% 
  dplyr::group_by(Seed) %>% 
  dplyr::arrange(height, age, Seed) %>% 
  dplyr::slice(1, dplyr::n())
#> # A tibble: 28 x 3
#> # Groups:   Seed [14]
#>   height   age Seed 
#>    <dbl> <dbl> <ord>
#> 1   3.93     3 329  
#> 2  56.4     25 329  
#> 3   4.12     3 327  
#> 4  56.8     25 327  
#> 5   4.38     3 325  
#> 6  58.5     25 325  
#> # … with 22 more rows
```
…
