第 5 章 净土化操作 | 数据科学与 R 语言
…
diamonds %>% filter(cut == "Ideal" , carat >= 3)
#> # A tibble: 4 x 10
#>   carat cut   color clarity depth table price     x     y     z
#>   <dbl> <ord> <ord> <ord>   <dbl> <dbl> <int> <dbl> <dbl> <dbl>
#> 1  3.22 Ideal I     I1       62.6    55 12545  9.49  9.42  5.92
#> 2  3.5  Ideal H     I1       62.8    57 12587  9.65  9.59  6.03
#> 3  3.01 Ideal J     SI2      61.7    58 16037  9.25  9.2   5.69
#> 4  3.01 Ideal J     I1       65.4    60 16538  8.99  8.93  5.86

先按行，再按列筛选

diamonds %>% 
  filter(carat >= 3, color == "I") %>% 
  select(cut, carat)
#> # A tibble: 16 x 2
#>   cut       carat
#>   <ord>     <dbl>
#> 1 Premium    3.01
#> 2 Fair       3.02
#> 3 Good       3   
#> 4 Ideal      3.22
#> 5 Premium    4.01
#> 6 Very Good  3.04
#> # … with 10 more rows
…
5.1.4 聚合

分组求和，求平均，计数

diamonds %>% 
  filter(carat > 3, color == "I") %>% 
  group_by(cut, clarity) %>% 
  summarise(sum_carat = sum(carat), mean_carat = mean(carat), n_count = n())
#> # A tibble: 8 x 5
#> # Groups:   cut [5]
#>   cut       clarity sum_carat mean_carat n_count
#>   <ord>     <ord>       <dbl>      <dbl>   <int>
#> 1 Fair      I1           3.02       3.02       1
#> 2 Fair      SI2          6.02       3.01       2
#> 3 Good      SI2          6.02       3.01       2
#> 4 Very Good I1           4          4          1
#> 5 Very Good SI2          3.04       3.04       1
#> 6 Premium   I1          10.7        3.56       3
#> # … with 2 more rows

5.1.5 合并

按行合并

set.seed(2018)
one <- diamonds %>% 
  filter(color == "I") %>% 
  sample_n(5)
two <- diamonds %>% 
  filter(color == "J") %>% 
  sample_n(5)
# 按行合并数据框 one 和 two
bind_rows(one, two)
#> # A tibble: 10 x 10
#>   carat cut       color clarity depth table price     x     y     z
#>   <dbl> <ord>     <ord> <ord>   <dbl> <dbl> <int> <dbl> <dbl> <dbl>
#> 1  0.42 Ideal     I     VVS1     62.5  57     884  4.77  4.8   2.99
#> 2  0.3  Ideal     I     VVS2     62.5  53.6   532  4.29  4.33  2.69
#> 3  2.02 Good      I     VS1      57.9  63   17533  8.13  8.21  4.73
#> 4  0.9  Premium   I     VS2      61.9  58    3398  6.18  6.23  3.84
#> 5  1.98 Very Good I     VS2      62.7  60   15083  7.9   7.96  4.98
#> 6  1.51 Very Good J     VVS2     62.6  63    8706  7.29  7.24  4.55
#> # … with 4 more rows
…
5.1.6 变换

添加一列，新的列或者改变原来的列

diamonds %>% 
  filter(carat > 3, color == "I") %>% 
  select(cut, carat) %>% 
  mutate(vol = if_else(carat > 3.5, "A", "B"))
#> # A tibble: 13 x 3
#>   cut       carat vol  
#>   <ord>     <dbl> <chr>
#> 1 Premium    3.01 B    
#> 2 Fair       3.02 B    
#> 3 Ideal      3.22 B    
#> 4 Premium    4.01 A    
#> 5 Very Good  3.04 B    
#> 6 Very Good  4    A    
#> # … with 7 more rows
…
